simWorkspace/RF/test.vcd
$version Generated by VerilatedVcd $end
$date Tue Jul 13 21:17:32 2021
 $end
$timescale   1ps $end

 $scope module TOP $end
  $var wire  1 I RegWrite $end
  $var wire  1 J clk $end
  $var wire 16 G readData1 [15:0] $end
  $var wire 16 H readData2 [15:0] $end
  $var wire  5 C readReg1 [4:0] $end
  $var wire  5 D readReg2 [4:0] $end
  $var wire  1 K reset $end
  $var wire 16 F writeData [15:0] $end
  $var wire  5 E writeReg [4:0] $end
  $scope module RF $end
   $var wire  1 I RegWrite $end
   $var wire  1 J clk $end
   $var wire 16 G readData1 [15:0] $end
   $var wire 16 H readData2 [15:0] $end
   $var wire  5 C readReg1 [4:0] $end
   $var wire  5 D readReg2 [4:0] $end
   $var wire 16 # regs_0 [15:0] $end
   $var wire 16 $ regs_1 [15:0] $end
   $var wire 16 - regs_10 [15:0] $end
   $var wire 16 . regs_11 [15:0] $end
   $var wire 16 / regs_12 [15:0] $end
   $var wire 16 0 regs_13 [15:0] $end
   $var wire 16 1 regs_14 [15:0] $end
   $var wire 16 2 regs_15 [15:0] $end
   $var wire 16 3 regs_16 [15:0] $end
   $var wire 16 4 regs_17 [15:0] $end
   $var wire 16 5 regs_18 [15:0] $end
   $var wire 16 6 regs_19 [15:0] $end
   $var wire 16 % regs_2 [15:0] $end
   $var wire 16 7 regs_20 [15:0] $end
   $var wire 16 8 regs_21 [15:0] $end
   $var wire 16 9 regs_22 [15:0] $end
   $var wire 16 : regs_23 [15:0] $end
   $var wire 16 ; regs_24 [15:0] $end
   $var wire 16 < regs_25 [15:0] $end
   $var wire 16 = regs_26 [15:0] $end
   $var wire 16 > regs_27 [15:0] $end
   $var wire 16 ? regs_28 [15:0] $end
   $var wire 16 @ regs_29 [15:0] $end
   $var wire 16 & regs_3 [15:0] $end
   $var wire 16 A regs_30 [15:0] $end
   $var wire 16 B regs_31 [15:0] $end
   $var wire 16 ' regs_4 [15:0] $end
   $var wire 16 ( regs_5 [15:0] $end
   $var wire 16 ) regs_6 [15:0] $end
   $var wire 16 * regs_7 [15:0] $end
   $var wire 16 + regs_8 [15:0] $end
   $var wire 16 , regs_9 [15:0] $end
   $var wire  1 K reset $end
   $var wire 16 F writeData [15:0] $end
   $var wire  5 E writeReg [4:0] $end
  $upscope $end
 $upscope $end
$enddefinitions $end


#0
b1100000101001100 #
b1100001111111000 $
b1100110111010000 %
b1010001000000111 &
b0010101110011001 '
b1101011010111000 (
b1111100100010001 )
b0110111110101101 *
b0111101000101010 +
b0011111100011110 ,
b0100011000110110 -
b0100001110101100 .
b0010000111101111 /
b0110010100101001 0
b1110011100110000 1
b1000010111010110 2
b0100000010101100 3
b0010111101110011 4
b1101000011110111 5
b0100001011100010 6
b0100111100110100 7
b0010011111111111 8
b1011100001111010 9
b1110101100001100 :
b0000100101010101 ;
b0011000101110011 <
b0000110010111001 =
b1011100011100010 >
b0010100100100011 ?
b1110101010100001 @
b0001010011100110 A
b1100010011011100 B
b00100 C
b11100 D
b11011 E
b0100000110111110 F
b0010101110011001 G
b0010100100100011 H
1I
0J
1K
#50
b0000000000000000 #
b0000000000000000 $
b0000000000000000 %
b0000000000000000 &
b0000000000000000 '
b0000000000000000 (
b0000000000000000 )
b0000000000000000 *
b0000000000000000 +
b0000000000000000 ,
b0000000000000000 -
b0000000000000000 .
b0000000000000000 /
b0000000000000000 0
b0000000000000000 1
b0000000000000000 2
b0000000000000000 3
b0000000000000000 4
b0000000000000000 5
b0000000000000000 6
b0000000000000000 7
b0000000000000000 8
b0000000000000000 9
b0000000000000000 :
b0000000000000000 ;
b0000000000000000 <
b0000000000000000 =
b0000000000000000 >
b0000000000000000 ?
b0000000000000000 @
b0000000000000000 A
b0000000000000000 B
b0000000000000000 G
b0000000000000000 H
1J
#100
0J
#150
1J
#200
0J
#250
1J
#300
0J
#350
1J
#400
0J
#450
1J
#500
0J
#550
1J
#600
0J
#650
1J
#700
0J
#750
1J
#800
0J
#850
1J
#900
0J
#950
1J
#1000
0J
#1050
1J
#1100
0J
#1150
1J
#1200
0J
#1250
1J
#1300
0J
#1350
1J
#1400
0J
#1450
1J
#1500
0J
#1550
1J
#1600
0J
0K
#1650
b0100000110111110 >
b11001 C
b01011 D
b00000 E
b1101010001011110 F
1J
#1700
0J
#1750
b1101010001011110 #
b00110 C
b10111 D
b00001 E
b1011011100000011 F
1J
#1800
0J
#1850
b1011011100000011 $
b01101 C
b10000 D
b00010 E
b1110000011001001 F
1J
#1900
0J
#1950
b1110000011001001 %
b01000 C
b10110 D
b00011 E
b1111010111110000 F
1J
#2000
0J
#2050
b1111010111110000 &
b00101 C
b11101 D
b00100 E
b1001001001010000 F
1J
#2100
0J
#2150
b1001001001010000 '
b11000 C
b00010 D
b00101 E
b1010000000100101 F
b1110000011001001 H
1J
#2200
0J
#2250
b1010000000100101 (
b10101 C
b00001 D
b00110 E
b0101101110011100 F
b1011011100000011 H
1J
#2300
0J
#2350
b0101101110011100 )
b01010 C
b00010 D
b00111 E
b1000010011100100 F
b1110000011001001 H
1J
#2400
0J
#2450
b1000010011100100 *
b10011 C
b11001 D
b01000 E
b1111010010111011 F
b0000000000000000 H
1J
#2500
0J
#2550
b1111010010111011 +
b00001 C
b01100 D
b01001 E
b1110011110100100 F
b1011011100000011 G
1J
#2600
0J
#2650
b1110011110100100 ,
b00100 C
b11100 D
b01010 E
b0111001001001110 F
b1001001001010000 G
1J
#2700
0J
#2750
b0111001001001110 -
b11110 C
b01001 D
b01011 E
b1011110111011011 F
b0000000000000000 G
b1110011110100100 H
1J
#2800
0J
#2850
b1011110111011011 .
b00111 C
b00010 D
b01100 E
b0111010011110111 F
b1000010011100100 G
b1110000011001001 H
1J
#2900
0J
#2950
b0111010011110111 /
b01001 C
b00101 D
b01101 E
b0100001100001101 F
b1110011110100100 G
b1010000000100101 H
1J
#3000
0J
#3050
b0100001100001101 0
b00000 C
b10111 D
b01110 E
b1111110011111101 F
b1101010001011110 G
b0000000000000000 H
1J
#3100
0J
#3150
b1111110011111101 1
b11100 D
b01111 E
b0000111100010110 F
1J
#3200
0J
#3250
b0000111100010110 2
b01000 C
b11111 D
b10000 E
b1010111001000010 F
b1111010010111011 G
1J
#3300
0J
#3350
b1010111001000010 3
b11101 C
b00001 D
b10001 E
b0001101010110100 F
b0000000000000000 G
b1011011100000011 H
1J
#3400
0J
#3450
b0001101010110100 4
b10011 C
b01001 D
b10010 E
b1001000001101000 F
b1110011110100100 H
1J
#3500
0J
#3550
b1001000001101000 5
b01100 C
b10000 D
b10011 E
b0101111001011000 F
b0111010011110111 G
b1010111001000010 H
1J
#3600
0J
#3650
b0101111001011000 6
b00010 C
b11000 D
b10100 E
b1001011100111111 F
b1110000011001001 G
b0000000000000000 H
1J
#3700
0J
#3750
b1001011100111111 7
b01101 C
b10110 D
b10101 E
b1111011100101110 F
b0100001100001101 G
1J
#3800
0J
#3850
b1111011100101110 8
b01010 C
b10000 D
b10110 E
b0111111101110001 F
b0111001001001110 G
b1010111001000010 H
1J
#3900
0J
#3950
b0111111101110001 9
b00110 C
b11111 D
b10111 E
b1111111001101011 F
b0101101110011100 G
b0000000000000000 H
1J
#4000
0J
#4050
b1111111001101011 :
b00011 C
b11110 D
b11000 E
b1100101101110001 F
b1111010111110000 G
1J
#4100
0J
#4150
b1100101101110001 ;
b01110 C
b00000 D
b11001 E
b0111111011010111 F
b1111110011111101 G
b1101010001011110 H
1J
#4200
0J
#4250
b0111111011010111 <
b10101 C
b01011 D
b11010 E
b1110110010100001 F
b1111011100101110 G
b1011110111011011 H
1J
#4300
0J
#4350
b1110110010100001 =
b00110 D
b11011 E
b0011010010011010 F
b0101101110011100 H
1J
#4400
0J
#4450
b0011010010011010 >
b00000 C
b00010 D
b11100 E
b1110010011000010 F
b1101010001011110 G
b1110000011001001 H
1J
#4500
0J
#4550
b1110010011000010 ?
b10111 C
b11111 D
b11101 E
b0000001101001011 F
b1111111001101011 G
b0000000000000000 H
1J
#4600
0J
#4650
b0000001101001011 @
b01011 C
b11110 E
b1110101110100010 F
b1011110111011011 G
1J
#4700
0J
#4750
b1110101110100010 A
b00010 C
b00111 D
b11111 E
b0100111000110111 F
b1110000011001001 G
b1000010011100100 H
1J
#4800
0J
#4850
b0100111000110111 B
b10000 C
b11010 D
b11101 E
b0001100010101011 F
b1010111001000010 G
b1110110010100001 H
1J
#4900
0J
#4950
b0001100010101011 @
b01101 C
b10001 D
b00100 E
b0001101010010100 F
b0100001100001101 G
b0001101010110100 H
1J
#5000
0J
#5050
b0001101010010100 '
b11011 C
b00111 D
b00101 E
b0010000100010100 F
b0011010010011010 G
b1000010011100100 H
0I
1J
#5100
0J
#5150
b10010 C
b01001 D
b00111 E
b0111111111001100 F
b1001000001101000 G
b1110011110100100 H
1J
#5200
0J
#5250
b00001 C
b10111 D
b11010 E
b1000001011111111 F
b1011011100000011 G
b1111111001101011 H
1J
#5300
0J
#5350
b11001 C
b00000 D
b01101 E
b1010001111010111 F
b0111111011010111 G
b1101010001011110 H
1J
#5400
0J
#5450
b10110 C
b01100 D
b00010 E
b0001110111001111 F
b0111111101110001 G
b0111010011110111 H
1J
#5500
0J
#5550
b01011 C
b01000 D
b11010 E
b0101100100001110 F
b1011110111011011 G
b1111010010111011 H
1J
#5600
0J
#5650
b10101 C
b11011 D
b10100 E
b1100010110001111 F
b1111011100101110 G
b0011010010011010 H
1I
1J
#5700
0J
#5750
b1100010110001111 7
b00001 C
b11000 D
b00101 E
b0000001000101100 F
b1011011100000011 G
b1100101101110001 H
1J
#5800
0J
#5850
b0000001000101100 (
b10011 D
b11010 E
b0100101111010000 F
b0101111001011000 H
0I
1J
#5900
0J
#5950
b11100 C
b00111 D
b01011 E
b0011010111001110 F
b1110010011000010 G
b1000010011100100 H
1J
#6000
0J
#6050
b01010 D
b00110 E
b0101101110101111 F
b0111001001001110 H
1I
1J
#6100
0J
#6150
b0101101110101111 )
b01010 C
b11010 D
b00100 E
b1100010101110001 F
b0111001001001110 G
b1110110010100001 H
1J
#6200
0J
#6250
b1100010101110001 '
b10011 C
b01000 E
b0001000111111011 F
b0101111001011000 G
1J
#6300
0J
#6350
b0001000111111011 +
b11111 C
b11000 D
b00000 E
b0011010101001101 F
b0100111000110111 G
b1100101101110001 H
0I
1J
#6400
0J
#6450
b01011 C
b11011 D
b00111 E
b1101011111001101 F
b1011110111011011 G
b0011010010011010 H
1J
#6500
0J
#6550
b11000 D
b11000 E
b0110111010111101 F
b1100101101110001 H
1J
#6600
0J
#6650
b00001 C
b00111 E
b0101010100001000 F
b1011011100000011 G
1J
#6700
0J
#6750
b10100 C
b00011 D
b10010 E
b0011110100010011 F
b1100010110001111 G
b1111010111110000 H
1J
#6800
0J
#6850
b00100 C
b10110 D
b00101 E
b0010000110101010 F
b1100010101110001 G
b0111111101110001 H
1I
1J
#6900
0J
#6950
b0010000110101010 (
b00000 C
b01010 D
b01100 E
b1000010100001001 F
b1101010001011110 G
b0111001001001110 H
0I
1J
#7000
0J
#7050
b00110 C
b00001 D
b01010 E
b0111111111010000 F
b0101101110101111 G
b1011011100000011 H
1I
1J
#7100
0J
#7150
b0111111111010000 -
b10001 C
b10111 D
b01100 E
b0011000100110001 F
b0001101010110100 G
b1111111001101011 H
1J
#7200
0J
#7250
b0011000100110001 /
b10011 C
b11101 D
b10001 E
b1010110111001110 F
b0101111001011000 G
b0001100010101011 H
1J
#7300
0J
#7350
b1010110111001110 4
b11110 C
b00101 D
b00101 E
b0001001000010001 F
b1110101110100010 G
b0010000110101010 H
0I
1J
#7400
0J
#7450
b00101 C
b01110 D
b01010 E
b1001011011100010 F
b0010000110101010 G
b1111110011111101 H
1I
1J
#7500
0J
#7550
b1001011011100010 -
b10111 C
b00011 D
b10001 E
b0111111011001000 F
b1111111001101011 G
b1111010111110000 H
0I
1J
#7600
0J
#7650
b11001 C
b01111 D
b11100 E
b1010001000110111 F
b0111111011010111 G
b0000111100010110 H
1I
1J
#7700
0J
#7750
b1010001000110111 ?
b01001 C
b01110 D
b01101 E
b1110101101111010 F
b1110011110100100 G
b1111110011111101 H
1J
#7800
0J
#7850
b1110101101111010 0
b01101 C
b11100 D
b11111 E
b0110101101011010 F
b1110101101111010 G
b1010001000110111 H
1J
#7900
0J
#7950
b0110101101011010 B
b01000 C
b00110 D
b00010 E
b1111110011001100 F
b0001000111111011 G
b0101101110101111 H
0I
1J
#8000
0J
#8050
b01110 C
b01011 D
b0001110001010010 F
b1111110011111101 G
b1011110111011011 H
1I
1J
#8100
0J
#8150
b0001110001010010 %
b00101 C
b01010 D
b10101 E
b0110110000110110 F
b0010000110101010 G
b1001011011100010 H
1J
#8200
0J
#8250
b0110110000110110 8
b11111 C
b10011 D
b10011 E
b0100000011110011 F
b0110101101011010 G
b0101111001011000 H
0I
1J
#8300
0J
#8350
b10111 C
b00011 D
b11111 E
b0110011100000011 F
b1111111001101011 G
b1111010111110000 H
1J
#8400
0J
#8450
b00010 C
b10010 D
b00110 E
b0000110000101100 F
b0001110001010010 G
b1001000001101000 H
1I
1J
#8500
0J
#8550
b0000110000101100 )
b01001 C
b11010 D
b10111 E
b1000001000100101 F
b1110011110100100 G
b1110110010100001 H
0I
1J
#8600
0J
#8650
b01100 C
b01001 D
b10010 E
b0111101101011011 F
b0011000100110001 G
b1110011110100100 H
1J
#8700
0J
#8750
b00000 C
b11000 D
b01101 E
b1111011101010010 F
b1101010001011110 G
b1100101101110001 H
1I
1J
#8800
0J
#8850
b1111011101010010 0
b00101 C
b10000 D
b11110 E
b0101100011101010 F
b0010000110101010 G
b1010111001000010 H
0I
1J
#8900
0J
#8950
b11010 C
b00101 D
b11001 E
b0011001111111110 F
b1110110010100001 G
b0010000110101010 H
1I
1J
#9000
0J
#9050
b0011001111111110 <
b00010 C
b01000 D
b00110 E
b0010011011001000 F
b0001110001010010 G
b0001000111111011 H
0I
1J
#9100
0J
#9150
b11010 C
b10000 D
b11001 E
b1110000100111001 F
b1110110010100001 G
b1010111001000010 H
1J
#9200
0J
#9250
b00111 C
b11011 D
b01111 E
b0100001001111000 F
b1000010011100100 G
b0011010010011010 H
1J
#9300
0J
#9350
b10111 C
b10101 D
b11000 E
b0000001101101111 F
b1111111001101011 G
b0110110000110110 H
1I
1J
#9400
0J
#9450
b0000001101101111 ;
b01000 C
b01101 D
b00010 E
b0110111111001001 F
b0001000111111011 G
b1111011101010010 H
0I
1J
#9500
0J
#9550
b01001 C
b10111 D
b11100 E
b1011001110011100 F
b1110011110100100 G
b1111111001101011 H
1I
1J
#9600
0J
#9650
b1011001110011100 ?
b00001 C
b11100 D
b11011 E
b0011010001111110 F
b1011011100000011 G
b1011001110011100 H
1J
#9700
0J
#9750
b0011010001111110 >
b10000 C
b00110 D
b00100 E
b1100111110000001 F
b1010111001000010 G
b0000110000101100 H
1J
