simWorkspace/instMem/test.vcd
$version Generated by VerilatedVcd $end
$date Thu Jul 15 09:13:50 2021
 $end
$timescale   1ps $end

 $scope module TOP $end
  $var wire  9 # address [8:0] $end
  $var wire 32 $ instruction [31:0] $end
  $scope module instMem $end
   $var wire  9 # address [8:0] $end
   $var wire 32 % content_0 [31:0] $end
   $var wire 32 & content_1 [31:0] $end
   $var wire 32 / content_10 [31:0] $end
   $var wire 32 +! content_100 [31:0] $end
   $var wire 32 ,! content_101 [31:0] $end
   $var wire 32 -! content_102 [31:0] $end
   $var wire 32 .! content_103 [31:0] $end
   $var wire 32 /! content_104 [31:0] $end
   $var wire 32 0! content_105 [31:0] $end
   $var wire 32 1! content_106 [31:0] $end
   $var wire 32 2! content_107 [31:0] $end
   $var wire 32 3! content_108 [31:0] $end
   $var wire 32 4! content_109 [31:0] $end
   $var wire 32 0 content_11 [31:0] $end
   $var wire 32 5! content_110 [31:0] $end
   $var wire 32 6! content_111 [31:0] $end
   $var wire 32 7! content_112 [31:0] $end
   $var wire 32 8! content_113 [31:0] $end
   $var wire 32 9! content_114 [31:0] $end
   $var wire 32 :! content_115 [31:0] $end
   $var wire 32 ;! content_116 [31:0] $end
   $var wire 32 <! content_117 [31:0] $end
   $var wire 32 =! content_118 [31:0] $end
   $var wire 32 >! content_119 [31:0] $end
   $var wire 32 1 content_12 [31:0] $end
   $var wire 32 ?! content_120 [31:0] $end
   $var wire 32 @! content_121 [31:0] $end
   $var wire 32 A! content_122 [31:0] $end
   $var wire 32 B! content_123 [31:0] $end
   $var wire 32 C! content_124 [31:0] $end
   $var wire 32 D! content_125 [31:0] $end
   $var wire 32 E! content_126 [31:0] $end
   $var wire 32 F! content_127 [31:0] $end
   $var wire 32 2 content_13 [31:0] $end
   $var wire 32 3 content_14 [31:0] $end
   $var wire 32 4 content_15 [31:0] $end
   $var wire 32 5 content_16 [31:0] $end
   $var wire 32 6 content_17 [31:0] $end
   $var wire 32 7 content_18 [31:0] $end
   $var wire 32 8 content_19 [31:0] $end
   $var wire 32 ' content_2 [31:0] $end
   $var wire 32 9 content_20 [31:0] $end
   $var wire 32 : content_21 [31:0] $end
   $var wire 32 ; content_22 [31:0] $end
   $var wire 32 < content_23 [31:0] $end
   $var wire 32 = content_24 [31:0] $end
   $var wire 32 > content_25 [31:0] $end
   $var wire 32 ? content_26 [31:0] $end
   $var wire 32 @ content_27 [31:0] $end
   $var wire 32 A content_28 [31:0] $end
   $var wire 32 B content_29 [31:0] $end
   $var wire 32 ( content_3 [31:0] $end
   $var wire 32 C content_30 [31:0] $end
   $var wire 32 D content_31 [31:0] $end
   $var wire 32 E content_32 [31:0] $end
   $var wire 32 F content_33 [31:0] $end
   $var wire 32 G content_34 [31:0] $end
   $var wire 32 H content_35 [31:0] $end
   $var wire 32 I content_36 [31:0] $end
   $var wire 32 J content_37 [31:0] $end
   $var wire 32 K content_38 [31:0] $end
   $var wire 32 L content_39 [31:0] $end
   $var wire 32 ) content_4 [31:0] $end
   $var wire 32 M content_40 [31:0] $end
   $var wire 32 N content_41 [31:0] $end
   $var wire 32 O content_42 [31:0] $end
   $var wire 32 P content_43 [31:0] $end
   $var wire 32 Q content_44 [31:0] $end
   $var wire 32 R content_45 [31:0] $end
   $var wire 32 S content_46 [31:0] $end
   $var wire 32 T content_47 [31:0] $end
   $var wire 32 U content_48 [31:0] $end
   $var wire 32 V content_49 [31:0] $end
   $var wire 32 * content_5 [31:0] $end
   $var wire 32 W content_50 [31:0] $end
   $var wire 32 X content_51 [31:0] $end
   $var wire 32 Y content_52 [31:0] $end
   $var wire 32 Z content_53 [31:0] $end
   $var wire 32 [ content_54 [31:0] $end
   $var wire 32 \ content_55 [31:0] $end
   $var wire 32 ] content_56 [31:0] $end
   $var wire 32 ^ content_57 [31:0] $end
   $var wire 32 _ content_58 [31:0] $end
   $var wire 32 ` content_59 [31:0] $end
   $var wire 32 + content_6 [31:0] $end
   $var wire 32 a content_60 [31:0] $end
   $var wire 32 b content_61 [31:0] $end
   $var wire 32 c content_62 [31:0] $end
   $var wire 32 d content_63 [31:0] $end
   $var wire 32 e content_64 [31:0] $end
   $var wire 32 f content_65 [31:0] $end
   $var wire 32 g content_66 [31:0] $end
   $var wire 32 h content_67 [31:0] $end
   $var wire 32 i content_68 [31:0] $end
   $var wire 32 j content_69 [31:0] $end
   $var wire 32 , content_7 [31:0] $end
   $var wire 32 k content_70 [31:0] $end
   $var wire 32 l content_71 [31:0] $end
   $var wire 32 m content_72 [31:0] $end
   $var wire 32 n content_73 [31:0] $end
   $var wire 32 o content_74 [31:0] $end
   $var wire 32 p content_75 [31:0] $end
   $var wire 32 q content_76 [31:0] $end
   $var wire 32 r content_77 [31:0] $end
   $var wire 32 s content_78 [31:0] $end
   $var wire 32 t content_79 [31:0] $end
   $var wire 32 - content_8 [31:0] $end
   $var wire 32 u content_80 [31:0] $end
   $var wire 32 v content_81 [31:0] $end
   $var wire 32 w content_82 [31:0] $end
   $var wire 32 x content_83 [31:0] $end
   $var wire 32 y content_84 [31:0] $end
   $var wire 32 z content_85 [31:0] $end
   $var wire 32 { content_86 [31:0] $end
   $var wire 32 | content_87 [31:0] $end
   $var wire 32 } content_88 [31:0] $end
   $var wire 32 ~ content_89 [31:0] $end
   $var wire 32 . content_9 [31:0] $end
   $var wire 32 !! content_90 [31:0] $end
   $var wire 32 "! content_91 [31:0] $end
   $var wire 32 #! content_92 [31:0] $end
   $var wire 32 $! content_93 [31:0] $end
   $var wire 32 %! content_94 [31:0] $end
   $var wire 32 &! content_95 [31:0] $end
   $var wire 32 '! content_96 [31:0] $end
   $var wire 32 (! content_97 [31:0] $end
   $var wire 32 )! content_98 [31:0] $end
   $var wire 32 *! content_99 [31:0] $end
   $var wire 32 $ instruction [31:0] $end
  $upscope $end
 $upscope $end
$enddefinitions $end


#0
b000000000 #
b00000000000000000000000000000000 $
b00000000000000000000000000000000 %
b00000000000000000000000000000001 &
b00000000000000000000000000000010 '
b00000000000000000000000000000011 (
b00000000000000000000000000000100 )
b00000000000000000000000000000101 *
b00000000000000000000000000000110 +
b00000000000000000000000000000111 ,
b00000000000000000000000000001000 -
b00000000000000000000000000001001 .
b00000000000000000000000000001010 /
b00000000000000000000000000001011 0
b00000000000000000000000000001100 1
b00000000000000000000000000001101 2
b00000000000000000000000000001110 3
b00000000000000000000000000001111 4
b00000000000000000000000000010000 5
b00000000000000000000000000010001 6
b00000000000000000000000000010010 7
b00000000000000000000000000010011 8
b00000000000000000000000000010100 9
b00000000000000000000000000010101 :
b00000000000000000000000000010110 ;
b00000000000000000000000000010111 <
b00000000000000000000000000011000 =
b00000000000000000000000000011001 >
b00000000000000000000000000011010 ?
b00000000000000000000000000011011 @
b00000000000000000000000000011100 A
b00000000000000000000000000011101 B
b00000000000000000000000000011110 C
b00000000000000000000000000011111 D
b00000000000000000000000000100000 E
b00000000000000000000000000100001 F
b00000000000000000000000000100010 G
b00000000000000000000000000100011 H
b00000000000000000000000000100100 I
b00000000000000000000000000100101 J
b00000000000000000000000000100110 K
b00000000000000000000000000100111 L
b00000000000000000000000000101000 M
b00000000000000000000000000101001 N
b00000000000000000000000000101010 O
b00000000000000000000000000101011 P
b00000000000000000000000000101100 Q
b00000000000000000000000000101101 R
b00000000000000000000000000101110 S
b00000000000000000000000000101111 T
b00000000000000000000000000110000 U
b00000000000000000000000000110001 V
b00000000000000000000000000110010 W
b00000000000000000000000000110011 X
b00000000000000000000000000110100 Y
b00000000000000000000000000110101 Z
b00000000000000000000000000110110 [
b00000000000000000000000000110111 \
b00000000000000000000000000111000 ]
b00000000000000000000000000111001 ^
b00000000000000000000000000111010 _
b00000000000000000000000000111011 `
b00000000000000000000000000111100 a
b00000000000000000000000000111101 b
b00000000000000000000000000111110 c
b00000000000000000000000000111111 d
b00000000000000000000000001000000 e
b00000000000000000000000001000001 f
b00000000000000000000000001000010 g
b00000000000000000000000001000011 h
b00000000000000000000000001000100 i
b00000000000000000000000001000101 j
b00000000000000000000000001000110 k
b00000000000000000000000001000111 l
b00000000000000000000000001001000 m
b00000000000000000000000001001001 n
b00000000000000000000000001001010 o
b00000000000000000000000001001011 p
b00000000000000000000000001001100 q
b00000000000000000000000001001101 r
b00000000000000000000000001001110 s
b00000000000000000000000001001111 t
b00000000000000000000000001010000 u
b00000000000000000000000001010001 v
b00000000000000000000000001010010 w
b00000000000000000000000001010011 x
b00000000000000000000000001010100 y
b00000000000000000000000001010101 z
b00000000000000000000000001010110 {
b00000000000000000000000001010111 |
b00000000000000000000000001011000 }
b00000000000000000000000001011001 ~
b00000000000000000000000001011010 !!
b00000000000000000000000001011011 "!
b00000000000000000000000001011100 #!
b00000000000000000000000001011101 $!
b00000000000000000000000001011110 %!
b00000000000000000000000001011111 &!
b00000000000000000000000001100000 '!
b00000000000000000000000001100001 (!
b00000000000000000000000001100010 )!
b00000000000000000000000001100011 *!
b00000000000000000000000001100100 +!
b00000000000000000000000001100101 ,!
b00000000000000000000000001100110 -!
b00000000000000000000000001100111 .!
b00000000000000000000000001101000 /!
b00000000000000000000000001101001 0!
b00000000000000000000000001101010 1!
b00000000000000000000000001101011 2!
b00000000000000000000000001101100 3!
b00000000000000000000000001101101 4!
b00000000000000000000000001101110 5!
b00000000000000000000000001101111 6!
b00000000000000000000000001110000 7!
b00000000000000000000000001110001 8!
b00000000000000000000000001110010 9!
b00000000000000000000000001110011 :!
b00000000000000000000000001110100 ;!
b00000000000000000000000001110101 <!
b00000000000000000000000001110110 =!
b00000000000000000000000001110111 >!
b00000000000000000000000001111000 ?!
b00000000000000000000000001111001 @!
b00000000000000000000000001111010 A!
b00000000000000000000000001111011 B!
b00000000000000000000000001111100 C!
b00000000000000000000000001111101 D!
b00000000000000000000000001111110 E!
b00000000000000000000000001111111 F!
#1
b000000100 #
b00000000000000000000000000000001 $
#2
b000001000 #
b00000000000000000000000000000010 $
#3
b000001100 #
b00000000000000000000000000000011 $
#4
b000010000 #
b00000000000000000000000000000100 $
#5
b000010100 #
b00000000000000000000000000000101 $
#6
b000011000 #
b00000000000000000000000000000110 $
#7
b000011100 #
b00000000000000000000000000000111 $
#8
b000100000 #
b00000000000000000000000000001000 $
#9
b000100100 #
b00000000000000000000000000001001 $
#10
b000101000 #
b00000000000000000000000000001010 $
#11
b000101100 #
b00000000000000000000000000001011 $
#12
b000110000 #
b00000000000000000000000000001100 $
#13
b000110100 #
b00000000000000000000000000001101 $
#14
b000111000 #
b00000000000000000000000000001110 $
#15
b000111100 #
b00000000000000000000000000001111 $
#16
b001000000 #
b00000000000000000000000000010000 $
#17
b001000100 #
b00000000000000000000000000010001 $
#18
b001001000 #
b00000000000000000000000000010010 $
#19
b001001100 #
b00000000000000000000000000010011 $
#20
b001010000 #
b00000000000000000000000000010100 $
#21
b001010100 #
b00000000000000000000000000010101 $
#22
b001011000 #
b00000000000000000000000000010110 $
#23
b001011100 #
b00000000000000000000000000010111 $
#24
b001100000 #
b00000000000000000000000000011000 $
#25
b001100100 #
b00000000000000000000000000011001 $
#26
b001101000 #
b00000000000000000000000000011010 $
#27
b001101100 #
b00000000000000000000000000011011 $
#28
b001110000 #
b00000000000000000000000000011100 $
#29
b001110100 #
b00000000000000000000000000011101 $
#30
b001111000 #
b00000000000000000000000000011110 $
#31
b001111100 #
b00000000000000000000000000011111 $
#32
b010000000 #
b00000000000000000000000000100000 $
#33
b010000100 #
b00000000000000000000000000100001 $
#34
b010001000 #
b00000000000000000000000000100010 $
#35
b010001100 #
b00000000000000000000000000100011 $
#36
b010010000 #
b00000000000000000000000000100100 $
#37
b010010100 #
b00000000000000000000000000100101 $
#38
b010011000 #
b00000000000000000000000000100110 $
#39
b010011100 #
b00000000000000000000000000100111 $
#40
b010100000 #
b00000000000000000000000000101000 $
#41
b010100100 #
b00000000000000000000000000101001 $
#42
b010101000 #
b00000000000000000000000000101010 $
#43
b010101100 #
b00000000000000000000000000101011 $
#44
b010110000 #
b00000000000000000000000000101100 $
#45
b010110100 #
b00000000000000000000000000101101 $
#46
b010111000 #
b00000000000000000000000000101110 $
#47
b010111100 #
b00000000000000000000000000101111 $
#48
b011000000 #
b00000000000000000000000000110000 $
#49
b011000100 #
b00000000000000000000000000110001 $
#50
b011001000 #
b00000000000000000000000000110010 $
#51
b011001100 #
b00000000000000000000000000110011 $
#52
b011010000 #
b00000000000000000000000000110100 $
#53
b011010100 #
b00000000000000000000000000110101 $
#54
b011011000 #
b00000000000000000000000000110110 $
#55
b011011100 #
b00000000000000000000000000110111 $
#56
b011100000 #
b00000000000000000000000000111000 $
#57
b011100100 #
b00000000000000000000000000111001 $
#58
b011101000 #
b00000000000000000000000000111010 $
#59
b011101100 #
b00000000000000000000000000111011 $
#60
b011110000 #
b00000000000000000000000000111100 $
#61
b011110100 #
b00000000000000000000000000111101 $
#62
b011111000 #
b00000000000000000000000000111110 $
#63
b011111100 #
b00000000000000000000000000111111 $
#64
b100000000 #
b00000000000000000000000001000000 $
#65
b100000100 #
b00000000000000000000000001000001 $
#66
b100001000 #
b00000000000000000000000001000010 $
#67
b100001100 #
b00000000000000000000000001000011 $
#68
b100010000 #
b00000000000000000000000001000100 $
#69
b100010100 #
b00000000000000000000000001000101 $
#70
b100011000 #
b00000000000000000000000001000110 $
#71
b100011100 #
b00000000000000000000000001000111 $
#72
b100100000 #
b00000000000000000000000001001000 $
#73
b100100100 #
b00000000000000000000000001001001 $
#74
b100101000 #
b00000000000000000000000001001010 $
#75
b100101100 #
b00000000000000000000000001001011 $
#76
b100110000 #
b00000000000000000000000001001100 $
#77
b100110100 #
b00000000000000000000000001001101 $
#78
b100111000 #
b00000000000000000000000001001110 $
#79
b100111100 #
b00000000000000000000000001001111 $
#80
b101000000 #
b00000000000000000000000001010000 $
#81
b101000100 #
b00000000000000000000000001010001 $
#82
b101001000 #
b00000000000000000000000001010010 $
#83
b101001100 #
b00000000000000000000000001010011 $
#84
b101010000 #
b00000000000000000000000001010100 $
#85
b101010100 #
b00000000000000000000000001010101 $
#86
b101011000 #
b00000000000000000000000001010110 $
#87
b101011100 #
b00000000000000000000000001010111 $
#88
b101100000 #
b00000000000000000000000001011000 $
#89
b101100100 #
b00000000000000000000000001011001 $
#90
b101101000 #
b00000000000000000000000001011010 $
#91
b101101100 #
b00000000000000000000000001011011 $
#92
b101110000 #
b00000000000000000000000001011100 $
#93
b101110100 #
b00000000000000000000000001011101 $
#94
b101111000 #
b00000000000000000000000001011110 $
#95
b101111100 #
b00000000000000000000000001011111 $
#96
b110000000 #
b00000000000000000000000001100000 $
#97
b110000100 #
b00000000000000000000000001100001 $
#98
b110001000 #
b00000000000000000000000001100010 $
#99
b110001100 #
b00000000000000000000000001100011 $
#100
b110010000 #
b00000000000000000000000001100100 $
#101
b110010100 #
b00000000000000000000000001100101 $
#102
b110011000 #
b00000000000000000000000001100110 $
#103
b110011100 #
b00000000000000000000000001100111 $
#104
b110100000 #
b00000000000000000000000001101000 $
#105
b110100100 #
b00000000000000000000000001101001 $
#106
b110101000 #
b00000000000000000000000001101010 $
#107
b110101100 #
b00000000000000000000000001101011 $
#108
b110110000 #
b00000000000000000000000001101100 $
#109
b110110100 #
b00000000000000000000000001101101 $
#110
b110111000 #
b00000000000000000000000001101110 $
#111
b110111100 #
b00000000000000000000000001101111 $
#112
b111000000 #
b00000000000000000000000001110000 $
#113
b111000100 #
b00000000000000000000000001110001 $
#114
b111001000 #
b00000000000000000000000001110010 $
#115
b111001100 #
b00000000000000000000000001110011 $
#116
b111010000 #
b00000000000000000000000001110100 $
#117
b111010100 #
b00000000000000000000000001110101 $
#118
b111011000 #
b00000000000000000000000001110110 $
#119
b111011100 #
b00000000000000000000000001110111 $
#120
b111100000 #
b00000000000000000000000001111000 $
#121
b111100100 #
b00000000000000000000000001111001 $
#122
b111101000 #
b00000000000000000000000001111010 $
#123
b111101100 #
b00000000000000000000000001111011 $
#124
b111110000 #
b00000000000000000000000001111100 $
#125
b111110100 #
b00000000000000000000000001111101 $
#126
b111111000 #
b00000000000000000000000001111110 $
#127
b111111100 #
b00000000000000000000000001111111 $
