simWorkspace/ALU/test.vcd
$version Generated by VerilatedVcd $end
$date Tue Jul 13 19:57:09 2021
 $end
$timescale   1ps $end

 $scope module TOP $end
  $var wire  2 # ALUop [1:0] $end
  $var wire  8 ) Result [7:0] $end
  $var wire  1 ( Zero $end
  $var wire  8 & data1 [7:0] $end
  $var wire  8 ' data2 [7:0] $end
  $var wire  3 % funct3 [2:0] $end
  $var wire  7 $ funct7 [6:0] $end
  $scope module ALU $end
   $var wire  4 * ALUCtrl [3:0] $end
   $var wire  2 # ALUop [1:0] $end
   $var wire  8 ) Result [7:0] $end
   $var wire  1 ( Zero $end
   $var wire  8 & data1 [7:0] $end
   $var wire  8 ' data2 [7:0] $end
   $var wire  3 % funct3 [2:0] $end
   $var wire  7 $ funct7 [6:0] $end
  $upscope $end
 $upscope $end
$enddefinitions $end


#0
b00 #
b0111000 $
b111 %
b00011111 &
b00111101 '
0(
b01011100 )
b0010 *
#1
#2
b01 #
b00001010 &
b01100001 '
b10101001 )
b0110 *
#3
#4
b10 #
b0000000 $
b000 %
b00111101 &
b01100100 '
b10100001 )
b0010 *
#5
#6
b0100000 $
b10100011 &
b10000010 '
b00100001 )
b0110 *
#7
#8
b0000000 $
b111 %
b10011100 &
b11111000 '
b10011000 )
b0000 *
#9
#10
b110 %
b00100001 &
b11000110 '
b11100111 )
b0001 *
#11
#12
b00 #
b00101011 &
b10110110 '
b11100001 )
b0010 *
#13
#14
b01 #
b01010101 &
b10011100 '
b10111001 )
b0110 *
#15
#16
b10 #
b000 %
b10111111 &
b11011110 '
b10011101 )
b0010 *
#17
#18
b0100000 $
b00110110 &
b00110110 '
1(
b00000000 )
b0110 *
#19
#20
b0000000 $
b111 %
b10010001 &
b10110110 '
0(
b10010000 )
b0000 *
#21
#22
b110 %
b01011101 &
b00001100 '
b01011101 )
b0001 *
#23
#24
b00 #
b10111100 &
b00000111 '
b11000011 )
b0010 *
#25
#26
b01 #
b10001001 &
b01011001 '
b00110000 )
b0110 *
#27
#28
b10 #
b000 %
b11000000 &
b10011110 '
b01011110 )
b0010 *
#29
#30
b0100000 $
b00011101 &
b10011101 '
b10000000 )
b0110 *
#31
#32
b0000000 $
b111 %
b00000010 &
b11001100 '
1(
b00000000 )
b0000 *
#33
#34
b110 %
b10011101 &
b00011001 '
0(
b10011101 )
b0001 *
#35
#36
b00 #
b01001001 &
b11100111 '
b00110000 )
b0010 *
#37
#38
b01 #
b00110101 &
b01010110 '
b11011111 )
b0110 *
#39
#40
b10 #
b000 %
b01000011 &
b11000111 '
b00001010 )
b0010 *
#41
#42
b0100000 $
b00110010 &
b10011110 '
b10010100 )
b0110 *
#43
#44
b0000000 $
b111 %
b11111110 &
b01001001 '
b01001000 )
b0000 *
#45
#46
b110 %
b10000110 &
b10000001 '
b10000111 )
b0001 *
#47
#48
b00 #
b01101111 &
b11010000 '
b00111111 )
b0010 *
#49
#50
b01 #
b01001000 &
b01010010 '
b11110110 )
b0110 *
#51
#52
b10 #
b000 %
b11101110 &
b10111111 '
b10101101 )
b0010 *
#53
#54
b0100000 $
b00110010 &
b10101000 '
b10001010 )
b0110 *
#55
#56
b0000000 $
b111 %
b10111000 &
b00000000 '
1(
b00000000 )
b0000 *
#57
#58
b110 %
b00100001 &
b11011110 '
0(
b11111111 )
b0001 *
#59
#60
b00 #
b01101100 &
b10000000 '
b11101100 )
b0010 *
#61
#62
b01 #
b10011001 &
b10010010 '
b00000111 )
b0110 *
#63
#64
b10 #
b000 %
b10001111 &
b10110000 '
b00111111 )
b0010 *
#65
#66
b0100000 $
b00111111 &
b00101001 '
b00010110 )
b0110 *
#67
#68
b0000000 $
b111 %
b00001000 &
b00000110 '
1(
b00000000 )
b0000 *
#69
#70
b110 %
b01011101 &
b01001010 '
0(
b01011111 )
b0001 *
#71
#72
b00 #
b10100100 &
b01111010 '
b00011110 )
b0010 *
#73
#74
b01 #
b01100001 &
b01011111 '
b00000010 )
b0110 *
#75
#76
b10 #
b000 %
b10010011 &
b00001001 '
b10011100 )
b0010 *
#77
#78
b0100000 $
b01011110 &
b00010111 '
b01000111 )
b0110 *
#79
#80
b0000000 $
b111 %
b11101001 &
b00110110 '
b00100000 )
b0000 *
#81
#82
b110 %
b10001001 &
b11100111 '
b11101111 )
b0001 *
#83
#84
b00 #
b00011110 &
b10000100 '
b10100010 )
b0010 *
#85
#86
b01 #
b10111101 &
b00111001 )
b0110 *
#87
#88
b10 #
b000 %
b10001111 &
b11111101 '
b10001100 )
b0010 *
#89
#90
b0100000 $
b11111000 &
b01101010 '
b10001110 )
b0110 *
#91
#92
b0000000 $
b111 %
b11111010 &
b10101110 '
b10101010 )
b0000 *
#93
#94
b110 %
b11011100 &
b01011000 '
b11011100 )
b0001 *
#95
#96
b00 #
b00000110 &
b00101000 '
b00101110 )
b0010 *
#97
#98
b01 #
b00101111 &
b11010010 '
b01011101 )
b0110 *
#99
#100
b10 #
b000 %
b10111001 &
b00000001 '
b10111010 )
b0010 *
#101
#102
b0100000 $
b01011011 &
b10011110 '
b10111101 )
b0110 *
#103
#104
b0000000 $
b111 %
b00000000 &
b01010001 '
1(
b00000000 )
b0000 *
#105
#106
b110 %
b11101110 &
b01000111 '
0(
b11101111 )
b0001 *
#107
#108
b00 #
b00101010 &
b00110110 '
b01100000 )
b0010 *
#109
#110
b01 #
b00011011 &
b10011101 '
b01111110 )
b0110 *
#111
#112
b10 #
b000 %
b01101101 &
b01010000 '
b10111101 )
b0010 *
#113
#114
b0100000 $
b00111000 &
b00110011 '
b00000101 )
b0110 *
#115
#116
b0000000 $
b111 %
b01100000 &
b01000101 '
b01000000 )
b0000 *
#117
#118
b110 %
b00111110 &
b11100000 '
b11111110 )
b0001 *
